<?xml version="1.0" encoding="UTF-8"?>
<svg width="27px" height="27px" viewBox="0 0 27 27" version="1.1" xmlns="http://www.w3.org/2000/svg" xmlns:xlink="http://www.w3.org/1999/xlink">
    <!-- Generator: Sketch 47.1 (45422) - http://www.bohemiancoding.com/sketch -->
    <title>icons/menu-small</title>
    <desc>Created with Sketch.</desc>
    <defs></defs>
    <g id="App" stroke="none" stroke-width="1" fill="none" fill-rule="evenodd" stroke-linecap="square">
        <g id="Settings" transform="translate(-30.000000, -29.000000)" stroke="#2FFAD3">
            <g id="icons/menu-small" transform="translate(31.000000, 30.000000)">
                <g id="menu">
                    <path d="M9.97201871,-2.84849411 L9.97201871,22.7925315" id="Line-2" stroke-width="2.56" transform="translate(9.972019, 9.972019) rotate(45.000000) translate(-9.972019, -9.972019) "></path>
                    <path d="M14.5047545,1.68424167 L14.5047545,27.3252673" id="Line-2-Copy" stroke-width="2.56" transform="translate(14.504754, 14.504754) rotate(45.000000) translate(-14.504754, -14.504754) "></path>
                </g>
            </g>
        </g>
    </g>
</svg>